,actualStart,deliveryCount
7,2016-04-24,52
14,2016-05-01,55
21,2016-05-08,80
28,2016-05-15,107
35,2016-05-22,119
42,2016-05-29,172
49,2016-06-05,154
56,2016-06-12,157
63,2016-06-19,155
70,2016-06-26,150
77,2016-07-03,92
84,2016-07-10,112
91,2016-07-17,206
98,2016-07-24,215
105,2016-07-31,232
112,2016-08-07,210
119,2016-08-14,203
126,2016-08-21,184
133,2016-08-28,182
140,2016-09-04,216
147,2016-09-11,233
154,2016-09-18,233
161,2016-09-25,285
168,2016-10-02,204
175,2016-10-09,237
