,actualStart,deliveryCount
4,2016-04-21,73
11,2016-04-28,67
18,2016-05-05,49
25,2016-05-12,65
32,2016-05-19,88
39,2016-05-26,70
46,2016-06-02,121
53,2016-06-09,156
60,2016-06-16,85
67,2016-06-23,111
74,2016-06-30,87
81,2016-07-07,91
88,2016-07-14,152
95,2016-07-21,152
102,2016-07-28,162
109,2016-08-04,162
116,2016-08-11,124
123,2016-08-18,198
130,2016-08-25,157
137,2016-09-01,235
144,2016-09-08,188
151,2016-09-15,216
158,2016-09-22,212
165,2016-09-29,192
172,2016-10-06,141
