"id","administrative_area_level_1","postal_code"
106,"NSW",2000
118,"QLD",4068
124,"NSW",2028
146,"NSW",2031
147,"NSW",2038
153,"NSW",2018
156,"NSW",2011
163,"NSW",2038
164,"NSW",2031
181,"NSW",2026
182,"NSW",2010
183,"NSW",2010
184,"NSW",2042
188,"NSW",2021
189,"NSW",2041
190,"NSW",2007
194,"NSW",2026
195,"NSW",2176
196,"VIC",3038
201,"NSW",2010
203,"VIC",3977
205,"VIC",3915
206,"QLD",4010
207,"NSW",2031
209,"NSW",2065
211,"NSW",2000
213,"NSW",2000
219,"NSW",2015
220,"NSW",2028
221,"VIC",3152
222,"VIC",3171
225,"NSW",2026
230,"NSW",2010
239,"NSW",2010
240,"VIC",3121
242,"NSW",2128
243,"NSW",2038
244,"NSW",2010
246,"VIC",3121
